{
    "file_length": 2000,
    "mass": 105.66,
    "maxE": 5000.0,
    "minE": 10.0,
    "pid": [-13, 13],
    "radius": 100.0,
    "run": 101301,
    "sampler": "log",
    "segment": 0,
    "short": "MDC_PG_muon_logE",
    "zpos": -1000.0
}
