{
    "file_length": 250,
    "mass": 0.511,
    "maxE": 100.0,
    "minE": 100.0,
    "pid": [-11, 11],
    "radius": 100.0,
    "run": 101103,
    "sampler": "const",
    "segment": 0,
    "short": "MDC_PG_elec_100GeV",
    "zpos": -1000.0
}
