{
    "file_length": 250,
    "mass": 0.511,
    "maxE": 1000.0,
    "minE": 10.0,
    "pid": [-11, 11],
    "radius": 100.0,
    "run": 101101,
    "sampler": "log",
    "segment": 0,
    "short": "MDC_PG_elec_logE",
    "zpos": -1000.0
}
